exp3
…
library(dplyr)
library(readxl)
data <- read_excel("/Users/foxxis/Documents/social induction/experiment data/exp1/output100.xlsx")
data

# A tibble: 103 × 33
   ip         date                theReason pro_id    d1    d2    d3    d4    d5
   <chr>      <dttm>              <chr>     <chr>  <dbl> <dbl> <dbl> <dbl> <dbl>
 1 5.67.38.54 2024-11-22 00:00:00 "[\"Just… 56990…     4     2     1     2     5
 2 79.79.199… 2024-11-22 00:00:00 "[\"\",\… 6665a…     4     1     1     1     5
 3 84.92.42.… 2024-11-22 00:00:00 "[\"\",\… 628d0…     5     2     2     3     4
 4 78.147.16… 2024-11-22 00:00:00 "[\"\",\… 5ef71…     2     2     1     5     6
 5 92.40.193… 2024-11-22 00:00:00 "[\"Sinc… 65e09…     5     1     1     3     4
 6 88.97.134… 2024-11-22 00:00:00 "[\"\",\… 67238…     2     3     3     4     5
 7 83.105.16… 2024-11-22 00:00:00 "[\"\",\… 64399…     4     1     1     1     4
 8 165.120.0… 2024-11-22 00:00:00 "[\"\",\… 62d6d…     4     2     1     2     6
 9 193.164.2… 2024-11-22 00:00:00 "[\"more… 5c1fc…     2     6     5     4     4
10 80.4.241.… 2024-11-22 00:00:00 "[\"\",\… 622a2…     1     1     1     2     6
# ℹ 93 more rows
# ℹ 24 more variables: d6 <dbl>, d7 <dbl>, d8 <dbl>, t1 <dbl>, t2 <dbl>,
#   t3 <dbl>, t4 <dbl>, t5 <dbl>, t6 <dbl>, t7 <dbl>, t8 <dbl>, pdiv1 <dbl>,
#   pdiv2 <dbl>, pnodiv1 <dbl>, pnodiv2 <dbl>, av_pdiv <dbl>, av_nodiv <dbl>,
#   start_time <dbl>, end_time <dbl>, time <dbl>, age <dbl>, gender <dbl>,
#   education <dbl>, correct <dbl>

#remove the 21st row because there is an error
data <- data[-21, ]  # Excludes the 22nd row
data <- data[-67, ]  # Excludes the 67th row
#add a new id to everyone
data <- data %>% 
  mutate(id=paste0('p', row_number()))
data

# A tibble: 101 × 34
   ip         date                theReason pro_id    d1    d2    d3    d4    d5
   <chr>      <dttm>              <chr>     <chr>  <dbl> <dbl> <dbl> <dbl> <dbl>
 1 5.67.38.54 2024-11-22 00:00:00 "[\"Just… 56990…     4     2     1     2     5
 2 79.79.199… 2024-11-22 00:00:00 "[\"\",\… 6665a…     4     1     1     1     5
 3 84.92.42.… 2024-11-22 00:00:00 "[\"\",\… 628d0…     5     2     2     3     4
 4 78.147.16… 2024-11-22 00:00:00 "[\"\",\… 5ef71…     2     2     1     5     6
 5 92.40.193… 2024-11-22 00:00:00 "[\"Sinc… 65e09…     5     1     1     3     4
 6 88.97.134… 2024-11-22 00:00:00 "[\"\",\… 67238…     2     3     3     4     5
 7 83.105.16… 2024-11-22 00:00:00 "[\"\",\… 64399…     4     1     1     1     4
 8 165.120.0… 2024-11-22 00:00:00 "[\"\",\… 62d6d…     4     2     1     2     6
 9 193.164.2… 2024-11-22 00:00:00 "[\"more… 5c1fc…     2     6     5     4     4
10 80.4.241.… 2024-11-22 00:00:00 "[\"\",\… 622a2…     1     1     1     2     6
# ℹ 91 more rows
# ℹ 25 more variables: d6 <dbl>, d7 <dbl>, d8 <dbl>, t1 <dbl>, t2 <dbl>,
#   t3 <dbl>, t4 <dbl>, t5 <dbl>, t6 <dbl>, t7 <dbl>, t8 <dbl>, pdiv1 <dbl>,
#   pdiv2 <dbl>, pnodiv1 <dbl>, pnodiv2 <dbl>, av_pdiv <dbl>, av_nodiv <dbl>,
#   start_time <dbl>, end_time <dbl>, time <dbl>, age <dbl>, gender <dbl>,
#   education <dbl>, correct <dbl>, id <chr>
…
