data_analysis tau for social agent exp3 (revise expertise information)
…
# A tibble: 4 × 4
  best_model  mean    sd     n
  <chr>      <dbl> <dbl> <int>
1 ll_ef       42.1  18.9    17
2 ll_mv       48.2  21.1    55
3 ll_nb       62.9  23.5    17
4 ll_none     46.7  24.5     7

print(div_data)

# A tibble: 96 × 3
   best_model type  value
   <chr>      <chr> <dbl>
 1 ll_nb      div      98
 2 ll_ef      div      50
 3 ll_nb      div      50
 4 ll_nb      div      98
 5 ll_ef      div      40
 6 ll_mv      div      34
 7 ll_mv      div      80
 8 ll_mv      div      30
 9 ll_nb      div      98
10 ll_ef      div      30
# ℹ 86 more rows
…
# A tibble: 4 × 4
  best_model  mean    sd     n
  <chr>      <dbl> <dbl> <int>
1 ll_ef       33.1  15.3    17
2 ll_mv       27.4  12.1    55
3 ll_nb       20.2  12.9    17
4 ll_none     28.4  14.8     7

print(div_data)

# A tibble: 96 × 3
   best_model type   value
   <chr>      <chr>  <dbl>
 1 ll_nb      nodiv1     1
 2 ll_ef      nodiv1    25
 3 ll_nb      nodiv1    30
 4 ll_nb      nodiv1     1
 5 ll_ef      nodiv1    30
 6 ll_mv      nodiv1    33
 7 ll_mv      nodiv1    10
 8 ll_mv      nodiv1    40
 9 ll_nb      nodiv1     1
10 ll_ef      nodiv1    60
# ℹ 86 more rows
…
# A tibble: 4 × 4
  best_model  mean    sd     n
  <chr>      <dbl> <dbl> <int>
1 ll_ef       24.9  11.1    17
2 ll_mv       24.4  10.9    55
3 ll_nb       16.9  13.0    17
4 ll_none     24.9  11.3     7

print(div_data)

# A tibble: 96 × 3
   best_model type   value
   <chr>      <chr>  <dbl>
 1 ll_nb      nodiv2     1
 2 ll_ef      nodiv2    25
 3 ll_nb      nodiv2    20
 4 ll_nb      nodiv2     1
 5 ll_ef      nodiv2    30
 6 ll_mv      nodiv2    33
 7 ll_mv      nodiv2    10
 8 ll_mv      nodiv2    30
 9 ll_nb      nodiv2     1
10 ll_ef      nodiv2    10
# ℹ 86 more rows
…
